{
  "status": {
    "code": 1,
    "warnings": [
      {
        "text": "Невалидный SVG, требуется обновить схему"
      },
      {
        "text": "Невалидная дата создания схемы"
      }
    ]
  },
  "schemesList": [
    {
      "name": "Схема 1",
      "createDate": "03.07.2012",
      "user": "user1",
      "tags": 0,
      "status": false,
      "children": []
    }
  ],
  "operation": {
    "create": true,
    "read": true,
    "update": true,
    "delete": false
  }
}
